\relax 
\@writefile{toc}{\contentsline {section}{\numberline {1}Introduction}{1}}
\@writefile{toc}{\contentsline {section}{\numberline {2}The problem}{1}}
\@writefile{toc}{\contentsline {section}{\numberline {3}Entering the problem into IBM's Cplex}{2}}
\@writefile{toc}{\contentsline {section}{\numberline {4}The data}{3}}
\@writefile{toc}{\contentsline {subsection}{\numberline {4.1}Firm network as \emph  {network.txt}}{3}}
\@writefile{toc}{\contentsline {subsection}{\numberline {4.2}Firm sector identification as \emph  {firmSector.txt}}{3}}
\@writefile{toc}{\contentsline {subsection}{\numberline {4.3}Household expenditure shares to different sectors as \emph  {hhShares.txt}}{4}}
\@writefile{toc}{\contentsline {subsection}{\numberline {4.4}The distribution of money among firms \emph  {money.txt}}{4}}
\@writefile{toc}{\contentsline {section}{\numberline {5}The code}{4}}
\@writefile{toc}{\contentsline {subsection}{\numberline {5.1}The file \emph  {inputProcess.py}}{5}}
\@writefile{toc}{\contentsline {subsection}{\numberline {5.2}The file \emph  {compute.py}}{6}}
